\cftpagenumbersoff {chapter}
\cftpagenumbersoff {part}
\cftpagenumbersoff {section}
\select@language {french}
\contentsline {part}{\relax \fontsize {14.4}{18}\selectfont \bf Remise des diff\'erents \'el\'ements du projet}{1}
\contentsline {part}{\relax \fontsize {14.4}{18}\selectfont \bf Pr\'esentation g\'en\'erale du projet}{1}
\contentsline {chapter}{Rappel du sujet}{1}
\contentsline {chapter}{Historique des soutenances pr\'ec\'edentes}{1}
\contentsline {chapter}{}{1}
\contentsline {part}{\relax \fontsize {14.4}{18}\selectfont \bf D\'emonstration du projet}{1}
\contentsline {chapter}{Installation}{1}
\contentsline {chapter}{Pr\'esentation de la r\'ealisation}{1}
\contentsline {section}{- G\'en\'erale}{1}
\contentsline {section}{- Individuelle}{1}
\contentsline {chapter}{D\'esinstallation}{1}
\contentsline {part}{\relax \fontsize {14.4}{18}\selectfont \bf Pr\'esentation du site web}{1}
\contentsline {chapter}{Tour du site}{1}
\contentsline {chapter}{Partage des t\^aches}{1}
\contentsline {part}{\relax \fontsize {14.4}{18}\selectfont \bf Conclusion}{1}
