\relax 
\catcode `:\active 
\catcode `;\active 
\catcode `!\active 
\catcode `?\active 
\@writefile{toc}{\cftpagenumbersoff  {chapter}}
\@writefile{toc}{\cftpagenumbersoff  {part}}
\@writefile{toc}{\cftpagenumbersoff  {section}}
\select@language{french}
\@writefile{toc}{\select@language{french}}
\@writefile{lof}{\select@language{french}}
\@writefile{lot}{\select@language{french}}
\@writefile{toc}{\contentsline {part}{\relax \fontsize  {14.4}{18}\selectfont  \bf  Remise des diff\'erents \'el\'ements du projet}{1}}
\@writefile{toc}{\contentsline {part}{\relax \fontsize  {14.4}{18}\selectfont  \bf  Pr\'esentation g\'en\'erale du projet}{1}}
\@writefile{toc}{\contentsline {chapter}{Rappel du sujet}{1}}
\@writefile{toc}{\contentsline {chapter}{Historique des soutenances pr\'ec\'edentes}{1}}
\@writefile{toc}{\contentsline {chapter}{}{1}}
\@writefile{toc}{\contentsline {part}{\relax \fontsize  {14.4}{18}\selectfont  \bf  D\'emonstration du projet}{1}}
\@writefile{toc}{\contentsline {chapter}{Installation}{1}}
\@writefile{toc}{\contentsline {chapter}{Pr\'esentation de la r\'ealisation}{1}}
\@writefile{toc}{\contentsline {section}{- G\'en\'erale}{1}}
\@writefile{toc}{\contentsline {section}{- Individuelle}{1}}
\@writefile{toc}{\contentsline {chapter}{D\'esinstallation}{1}}
\@writefile{toc}{\contentsline {part}{\relax \fontsize  {14.4}{18}\selectfont  \bf  Pr\'esentation du site web}{1}}
\@writefile{toc}{\contentsline {chapter}{Tour du site}{1}}
\@writefile{toc}{\contentsline {chapter}{Partage des t\^aches}{1}}
\@writefile{toc}{\contentsline {part}{\relax \fontsize  {14.4}{18}\selectfont  \bf  Conclusion}{1}}
