\relax 
\catcode `:\active 
\catcode `;\active 
\catcode `!\active 
\catcode `?\active 
\@writefile{toc}{\cftpagenumbersoff  {chapter}}
\@writefile{toc}{\cftpagenumbersoff  {part}}
\select@language{french}
\@writefile{toc}{\select@language{french}}
\@writefile{lof}{\select@language{french}}
\@writefile{lot}{\select@language{french}}
\@writefile{toc}{\contentsline {part}{\relax \fontsize  {14.4}{18}\selectfont  \bf  Introduction}{1}}
\@writefile{toc}{\contentsline {part}{\relax \fontsize  {14.4}{18}\selectfont  \bf  Pr\'esentation g\'en\'erale du projet}{1}}
\@writefile{toc}{\contentsline {chapter}{Avancement du projet}{1}}
\@writefile{toc}{\contentsline {chapter}{Avancement du site web}{1}}
\@writefile{toc}{\contentsline {chapter}{Probl\`emes majeurs lors de la r\'ealisation}{1}}
\@writefile{toc}{\contentsline {part}{\relax \fontsize  {14.4}{18}\selectfont  \bf  Pr\'esentation individuelle}{1}}
\@writefile{toc}{\contentsline {chapter}{T\^aches accomplies}{1}}
\@writefile{toc}{\contentsline {chapter}{T\^aches \`a r\'ealiser}{1}}
\@writefile{toc}{\contentsline {part}{\relax \fontsize  {14.4}{18}\selectfont  \bf  Conclusion}{1}}
\@writefile{toc}{\contentsline {chapter}{Rappel sur la soutenance}{1}}
\@writefile{toc}{\contentsline {chapter}{Rappel sur le travail \`a r\'ealiser}{1}}
