\relax 
\catcode `:\active 
\catcode `;\active 
\catcode `!\active 
\catcode `?\active 
\select@language{french}
\@writefile{toc}{\select@language{french}}
\@writefile{lof}{\select@language{french}}
\@writefile{lot}{\select@language{french}}
\@writefile{toc}{\contentsline {chapter}{\relax \fontsize  {14.4}{18}\selectfont  \bf  Introduction}{4}}
\@writefile{toc}{\contentsline {chapter}{\numberline {1}Rappels sur le cahier des charges}{5}}
\@writefile{lof}{\addvspace {10\p@ }}
\@writefile{lot}{\addvspace {10\p@ }}
\@writefile{toc}{\contentsline {section}{\numberline {1.1}Choix du groupe}{5}}
\@writefile{toc}{\contentsline {section}{\numberline {1.2}Membres du groupe}{6}}
\@writefile{toc}{\contentsline {subsection}{\numberline {1.2.1}Nicolas \bsc  {Acart} - \FB@og  Jean Jacquelin \FB@fg  \relax {}}{6}}
\@writefile{toc}{\contentsline {subsection}{\numberline {1.2.2}Guillaume \bsc  {Saladin} - \FB@og  Guigui \FB@fg  \relax {}}{7}}
\@writefile{toc}{\contentsline {subsection}{\numberline {1.2.3}Antonin \bsc  {Ginet} - \FB@og  Ruybi \FB@fg  \relax {}}{8}}
\@writefile{toc}{\contentsline {section}{\numberline {1.3}Le projet}{9}}
\@writefile{toc}{\contentsline {section}{\numberline {1.4}Partage des t\^aches}{11}}
\@writefile{toc}{\contentsline {subsection}{\numberline {1.4.1}R\'epartition des t\^aches}{11}}
\@writefile{toc}{\contentsline {subsection}{\numberline {1.4.2}Objectifs et d\'elais}{11}}
\@writefile{toc}{\contentsline {chapter}{\numberline {2}Le projet}{12}}
\@writefile{lof}{\addvspace {10\p@ }}
\@writefile{lot}{\addvspace {10\p@ }}
\@writefile{toc}{\contentsline {section}{\numberline {2.1}Visuel et Sonore}{12}}
\@writefile{toc}{\contentsline {subsection}{\numberline {2.1.1}Th\`eme graphique}{12}}
\@writefile{toc}{\contentsline {subsection}{\numberline {2.1.2}Sc\'enario}{13}}
\@writefile{toc}{\contentsline {subsection}{\numberline {2.1.3}Graphismes}{13}}
\@writefile{toc}{\contentsline {subsection}{\numberline {2.1.4}Son}{14}}
\@writefile{toc}{\contentsline {subsection}{\numberline {2.1.5}Site Web}{14}}
\@writefile{toc}{\contentsline {subsection}{\numberline {2.1.6}Level Design}{15}}
\@writefile{toc}{\contentsline {section}{\numberline {2.2}Le jeu}{16}}
\@writefile{toc}{\contentsline {subsection}{\numberline {2.2.1}Options}{16}}
\@writefile{toc}{\contentsline {subsection}{\numberline {2.2.2}Personnage virtuel}{17}}
\@writefile{toc}{\contentsline {subsection}{\numberline {2.2.3}Caract\'eristiques du joueur}{17}}
\@writefile{toc}{\contentsline {subsection}{\numberline {2.2.4}Plateformes}{18}}
\@writefile{toc}{\contentsline {subsection}{\numberline {2.2.5}Objets}{18}}
\@writefile{toc}{\contentsline {subsection}{\numberline {2.2.6}Ennemis}{18}}
\@writefile{toc}{\contentsline {section}{\numberline {2.3}Mode multijoueurs}{19}}
\@writefile{toc}{\contentsline {subsection}{\numberline {2.3.1}Connexion}{19}}
\@writefile{toc}{\contentsline {subsection}{\numberline {2.3.2}Gestion du r\'eseau}{20}}
\@writefile{toc}{\contentsline {subsection}{\numberline {2.3.3}Syst\`eme de jeu}{20}}
\@writefile{toc}{\contentsline {chapter}{\numberline {3}Avancement du projet}{21}}
\@writefile{lof}{\addvspace {10\p@ }}
\@writefile{lot}{\addvspace {10\p@ }}
\@writefile{toc}{\contentsline {section}{\numberline {3.1}Premi\`ere soutenance}{21}}
\@writefile{toc}{\contentsline {subsection}{\numberline {3.1.1}Narration et sc\'enario}{21}}
\@writefile{toc}{\contentsline {subsection}{\numberline {3.1.2}D\'eveloppement des IA}{21}}
\@writefile{toc}{\contentsline {subsection}{\numberline {3.1.3}Scripts joueurs}{22}}
\@writefile{toc}{\contentsline {subsection}{\numberline {3.1.4}Level Design}{23}}
\@writefile{toc}{\contentsline {subsection}{\numberline {3.1.5}Site Web}{23}}
\@writefile{toc}{\contentsline {subsection}{\numberline {3.1.6}R\'esum\'e de l'avancement}{24}}
\@writefile{toc}{\contentsline {section}{\numberline {3.2}Deuxi\`eme soutenance}{25}}
\@writefile{toc}{\contentsline {subsection}{\numberline {3.2.1}D\'eveloppement des IA}{25}}
\@writefile{toc}{\contentsline {subsection}{\numberline {3.2.2}Scripts joueurs}{26}}
\@writefile{toc}{\contentsline {subsection}{\numberline {3.2.3}Level Design}{27}}
\@writefile{toc}{\contentsline {subsection}{\numberline {3.2.4}Site Web}{28}}
\@writefile{toc}{\contentsline {subsection}{\numberline {3.2.5}R\'esum\'e de l'avancement}{29}}
\@writefile{toc}{\contentsline {section}{\numberline {3.3}Soutenance finale}{30}}
\@writefile{toc}{\contentsline {subsection}{\numberline {3.3.1}R\'esum\'e du projet}{30}}
\@writefile{toc}{\contentsline {chapter}{\numberline {4}Conclusions personnelles}{31}}
\@writefile{lof}{\addvspace {10\p@ }}
\@writefile{lot}{\addvspace {10\p@ }}
\@writefile{toc}{\contentsline {section}{\numberline {4.1}Nicolas \bsc  {Acart}}{31}}
\@writefile{toc}{\contentsline {section}{\numberline {4.2}Guillaume \bsc  {Saladin}}{32}}
\@writefile{toc}{\contentsline {section}{\numberline {4.3}Antonin \bsc  {Ginet}}{33}}
\@writefile{toc}{\contentsline {chapter}{\relax \fontsize  {14.4}{18}\selectfont  \bf  Conclusion}{34}}
